Identifying and extracting spreadsheet data from NHS Digital
…
downloads <- map(csvs[12], read_csv, na = "*")

head(downloads)

## [[1]]
## # A tibble: 7,148 x 10
##    PUBLICATION     EXTRACT_DATE TYPE  CCG_CODE ONS_CCG_CODE CODE  POSTCODE
##    <chr>           <chr>        <chr> <chr>    <chr>        <chr> <chr>   
##  1 GP_PRAC_PAT_LI 01JUL2018    GP    00C      E38000042    A830 DL1 3RT 
##  2 GP_PRAC_PAT_LI 01JUL2018    GP    00C      E38000042    A830 DL3 6HZ 
##  3 GP_PRAC_PAT_LI 01JUL2018    GP    00C      E38000042    A830 DL3 9JP 
##  4 GP_PRAC_PAT_LI 01JUL2018    GP    00C      E38000042    A830 DL1 4YL 
##  5 GP_PRAC_PAT_LI 01JUL2018    GP    00C      E38000042    A830 DL3 8SQ 
##  6 GP_PRAC_PAT_LI 01JUL2018    GP    00C      E38000042    A830 DL3 7JR 
##  7 GP_PRAC_PAT_LI 01JUL2018    GP    00C      E38000042    A830 DL1 5JN 
##  8 GP_PRAC_PAT_LI 01JUL2018    GP    00C      E38000042    A830 DL3 0PD 
##  9 GP_PRAC_PAT_LI 01JUL2018    GP    00C      E38000042    A830 DL2 2DS 
## 10 GP_PRAC_PAT_LI 01JUL2018    GP    00C      E38000042    A830 DL2 1BY 
## # ... with 7,138 more rows, and 3 more variables: SEX <chr>, AGE <chr>,
## #   NUMBER_OF_PATIENTS <int>
…
