Extracting information from PHE blogs and publications
…
Blog authors

We can obtain a table of blog authors.

ds <- blog_type_extractor(type = "author")

ds %>%
  select(author = `.x[[i]]`) %>%
  arrange(author) %>%
  slice(4:nrow(.)) 
#> # A tibble: 186 x 1
#>                author
#>                 <chr>
#>  1        alex-elliot
#>  2     alexander-vaux
#>  3      alison-hadley
#>  4     alison-keating
#>  5    alison-tedstone
#>  6        allan-baker
#>  7      andrew-cooper
#>  8         angie-bone
#>  9        ann-hoskins
#> 10 ann-marie-connolly
#> # ... with 176 more rows
…
